Reproducible Data Analysis with R
…
fct_relevel(f, "0", after = Inf)

 [1] 0  1  2  3  4  5  6  7  8  9  10
Levels: 1 2 3 4 5 6 7 8 9 10 0

Using Packages: Load Libraries

To use the functionality from installed packages, you usually load the package:

library(palmerpenguins)

penguins

# A tibble: 344 × 8
   species island    bill_length_mm bill_depth_mm flipper_length_mm body_mass_g sex     year
   <fct>   <fct>              <dbl>         <dbl>             <int>       <int> <fct>  <int>
 1 Adelie  Torgersen           39.1          18.7               181        3750 male    2007
 2 Adelie  Torgersen           39.5          17.4               186        3800 female  2007
 3 Adelie  Torgersen           40.3          18                 195        3250 female  2007
 4 Adelie  Torgersen           NA            NA                  NA          NA <NA>    2007
 5 Adelie  Torgersen           36.7          19.3               193        3450 female  2007
 6 Adelie  Torgersen           39.3          20.6               190        3650 male    2007
 7 Adelie  Torgersen           38.9          17.8               181        3625 female  2007
 8 Adelie  Torgersen           39.2          19.6               195        4675 male    2007
 9 Adelie  Torgersen           34.1          18.1               193        3475 <NA>    2007
10 Adelie  Torgersen           42            20.2               190        4250 <NA>    2007
# … with 334 more rows
…
tbl_long

# A tibble: 1,000 × 2
      id value
   <dbl> <dbl>
 1     1 881. 
 2     2 691. 
 3     3 787. 
 4     4  79.0
 5     5 206. 
 6     6 923. 
 7     7 987. 
 8     8 134. 
 9     9 940. 
10     0 165. 
# … with 990 more rows
…
tibble::as_tibble(penguins)

# A tibble: 344 × 8
   species island bill_…¹ bill_…² flipp…³ body_…⁴ sex  
   <fct>   <fct>    <dbl>   <dbl>   <int>   <int> <fct>
 1 Adelie  Torge…    39.1    18.7     181    3750 male 
 2 Adelie  Torge…    39.5    17.4     186    3800 fema…
 3 Adelie  Torge…    40.3    18       195    3250 fema…
 4 Adelie  Torge…    NA      NA        NA      NA <NA> 
 5 Adelie  Torge…    36.7    19.3     193    3450 fema…
 6 Adelie  Torge…    39.3    20.6     190    3650 male 
 7 Adelie  Torge…    38.9    17.8     181    3625 fema…
 8 Adelie  Torge…    39.2    19.6     195    4675 male 
 9 Adelie  Torge…    34.1    18.1     193    3475 <NA> 
10 Adelie  Torge…    42      20.2     190    4250 <NA> 
# … with 334 more rows, 1 more variable: year <int>,
#   and abbreviated variable names ¹​bill_length_mm,
#   ²​bill_depth_mm, ³​flipper_length_mm, ⁴​body_mass_g
…
