Reproducible Data Analysis with R
…
Pick Rows with Matching Criteria

filter(data, condition) allows you to select a subset of rows

→  join filtering conditions with & (and) and | (or):

filter(babynames, (name == "Cedric" | name == "Clarissa"))

# A tibble: 293 × 5
    year sex   name         n      prop
   <dbl> <chr> <chr>    <int>     <dbl>
 1  1880 F     Clarissa    10 0.000102 
 2  1882 F     Clarissa    13 0.000112 
 3  1883 F     Clarissa    17 0.000142 
 4  1884 F     Clarissa    18 0.000131 
 5  1885 F     Clarissa    11 0.0000775
 6  1886 F     Clarissa    15 0.0000976
 7  1887 F     Clarissa    17 0.000109 
 8  1888 F     Clarissa    12 0.0000633
 9  1889 F     Clarissa    20 0.000106 
10  1890 F     Clarissa    25 0.000124 
# … with 283 more rows
…
Pick Rows with Matching Criteria

filter(data, condition) allows you to select a subset of rows

→  filter conditions out with != (not equal):

filter(babynames, name != "Mary") 

# A tibble: 1,924,397 × 5
    year sex   name          n   prop
   <dbl> <chr> <chr>     <int>  <dbl>
 1  1880 F     Anna       2604 0.0267
 2  1880 F     Emma       2003 0.0205
 3  1880 F     Elizabeth  1939 0.0199
 4  1880 F     Minnie     1746 0.0179
 5  1880 F     Margaret   1578 0.0162
 6  1880 F     Ida        1472 0.0151
 7  1880 F     Alice      1414 0.0145
 8  1880 F     Bertha     1320 0.0135
 9  1880 F     Sarah      1288 0.0132
10  1880 F     Annie      1258 0.0129
# … with 1,924,387 more rows

Pick Rows with Matching Criteria

filter(data, condition) allows you to select a subset of rows

→  reverse filter conditions with !:

filter(babynames, !name %in% c("Anna", "Emma", "Elizabeth")) 

# A tibble: 1,923,865 × 5
    year sex   name         n   prop
   <dbl> <chr> <chr>    <int>  <dbl>
 1  1880 F     Mary      7065 0.0724
 2  1880 F     Minnie    1746 0.0179
 3  1880 F     Margaret  1578 0.0162
 4  1880 F     Ida       1472 0.0151
 5  1880 F     Alice     1414 0.0145
 6  1880 F     Bertha    1320 0.0135
 7  1880 F     Sarah     1288 0.0132
 8  1880 F     Annie     1258 0.0129
 9  1880 F     Clara     1226 0.0126
10  1880 F     Ella      1156 0.0118
# … with 1,923,855 more rows
…
select()

— Pick Columns with Matching Criteria —

Pick Columns with Matching Criteria

select(data, condition) allows you to select a subset of columns:

select(babynames, year, name, n)

# A tibble: 1,924,665 × 3
    year name          n
   <dbl> <chr>     <int>
 1  1880 Mary       7065
 2  1880 Anna       2604
 3  1880 Emma       2003
 4  1880 Elizabeth  1939
 5  1880 Minnie     1746
 6  1880 Margaret   1578
 7  1880 Ida        1472
 8  1880 Alice      1414
 9  1880 Bertha     1320
10  1880 Sarah      1288
# … with 1,924,655 more rows

Pick Columns with Matching Criteria

select(data, condition) allows you to select a subset of columns:

select(babynames, year, name, n)

Equivalent code in base R:

babynames[, c("year", "name", "n")]

# A tibble: 1,924,665 × 3
    year name          n
   <dbl> <chr>     <int>
 1  1880 Mary       7065
 2  1880 Anna       2604
 3  1880 Emma       2003
 4  1880 Elizabeth  1939
 5  1880 Minnie     1746
 6  1880 Margaret   1578
 7  1880 Ida        1472
 8  1880 Alice      1414
 9  1880 Bertha     1320
10  1880 Sarah      1288
# … with 1,924,655 more rows

Pick Columns with Matching Criteria

select(data, condition) allows you to select a subset of columns:

select(babynames, year, name, n)

# A tibble: 1,924,665 × 3
    year name          n
   <dbl> <chr>     <int>
 1  1880 Mary       7065
 2  1880 Anna       2604
 3  1880 Emma       2003
 4  1880 Elizabeth  1939
 5  1880 Minnie     1746
 6  1880 Margaret   1578
 7  1880 Ida        1472
 8  1880 Alice      1414
 9  1880 Bertha     1320
10  1880 Sarah      1288
# … with 1,924,655 more rows

select(babynames, -prop, -sex)

# A tibble: 1,924,665 × 3
    year name          n
   <dbl> <chr>     <int>
 1  1880 Mary       7065
 2  1880 Anna       2604
 3  1880 Emma       2003
 4  1880 Elizabeth  1939
 5  1880 Minnie     1746
 6  1880 Margaret   1578
 7  1880 Ida        1472
 8  1880 Alice      1414
 9  1880 Bertha     1320
10  1880 Sarah      1288
# … with 1,924,655 more rows

Pick Columns with Matching Criteria

select(data, condition) can also be used to reorder columns:

select(babynames, name, n, prop, sex, year)

# A tibble: 1,924,665 × 5
   name          n   prop sex    year
   <chr>     <int>  <dbl> <chr> <dbl>
 1 Mary       7065 0.0724 F      1880
 2 Anna       2604 0.0267 F      1880
 3 Emma       2003 0.0205 F      1880
 4 Elizabeth  1939 0.0199 F      1880
 5 Minnie     1746 0.0179 F      1880
 6 Margaret   1578 0.0162 F      1880
 7 Ida        1472 0.0151 F      1880
 8 Alice      1414 0.0145 F      1880
 9 Bertha     1320 0.0135 F      1880
10 Sarah      1288 0.0132 F      1880
# … with 1,924,655 more rows

Pick Columns with Matching Criteria

select(data, condition) can also be used to reorder columns:

select(babynames, n, everything())

# A tibble: 1,924,665 × 5
       n  year sex   name        prop
   <int> <dbl> <chr> <chr>      <dbl>
 1  7065  1880 F     Mary      0.0724
 2  2604  1880 F     Anna      0.0267
 3  2003  1880 F     Emma      0.0205
 4  1939  1880 F     Elizabeth 0.0199
 5  1746  1880 F     Minnie    0.0179
 6  1578  1880 F     Margaret  0.0162
 7  1472  1880 F     Ida       0.0151
 8  1414  1880 F     Alice     0.0145
 9  1320  1880 F     Bertha    0.0135
10  1288  1880 F     Sarah     0.0132
# … with 1,924,655 more rows
…
arrange()

— Reorder Rows —

Reorder Rows

arrange(data, condition) allows you to order rows by variables:

arrange(babynames, prop)

# A tibble: 1,924,665 × 5
    year sex   name            n       prop
   <dbl> <chr> <chr>       <int>      <dbl>
 1  2007 M     Aaban           5 0.00000226
 2  2007 M     Aareon          5 0.00000226
 3  2007 M     Aaris           5 0.00000226
 4  2007 M     Abd             5 0.00000226
 5  2007 M     Abdulazeez      5 0.00000226
 6  2007 M     Abdulhadi       5 0.00000226
 7  2007 M     Abdulhamid      5 0.00000226
 8  2007 M     Abdulkadir      5 0.00000226
 9  2007 M     Abdulraheem     5 0.00000226
10  2007 M     Abdulrahim      5 0.00000226
# … with 1,924,655 more rows

Reorder Rows

arrange(data, condition) allows you to order rows by variables:

arrange(babynames, prop)

Equivalent code in base R:

babynames[order(babynames$prop), ]

# A tibble: 1,924,665 × 5
    year sex   name            n       prop
   <dbl> <chr> <chr>       <int>      <dbl>
 1  2007 M     Aaban           5 0.00000226
 2  2007 M     Aareon          5 0.00000226
 3  2007 M     Aaris           5 0.00000226
 4  2007 M     Abd             5 0.00000226
 5  2007 M     Abdulazeez      5 0.00000226
 6  2007 M     Abdulhadi       5 0.00000226
 7  2007 M     Abdulhamid      5 0.00000226
 8  2007 M     Abdulkadir      5 0.00000226
 9  2007 M     Abdulraheem     5 0.00000226
10  2007 M     Abdulrahim      5 0.00000226
# … with 1,924,655 more rows

Reorder Rows

arrange(data, condition) allows you to order rows by variables:

arrange(babynames, -year, -prop)  ## only works for numeric

# A tibble: 1,924,665 × 5
    year sex   name         n    prop
   <dbl> <chr> <chr>    <int>   <dbl>
 1  2017 F     Emma     19738 0.0105 
 2  2017 F     Olivia   18632 0.00994
 3  2017 M     Liam     18728 0.00954
 4  2017 M     Noah     18326 0.00933
 5  2017 F     Ava      15902 0.00848
 6  2017 F     Isabella 15100 0.00805
 7  2017 F     Sophia   14831 0.00791
 8  2017 M     William  14904 0.00759
 9  2017 M     James    14232 0.00725
10  2017 F     Mia      13437 0.00717
# … with 1,924,655 more rows

Reorder Rows

arrange(data, condition) allows you to order rows by variables:

arrange(babynames, desc(year), desc(prop))  ## the "official" way

# A tibble: 1,924,665 × 5
    year sex   name         n    prop
   <dbl> <chr> <chr>    <int>   <dbl>
 1  2017 F     Emma     19738 0.0105 
 2  2017 F     Olivia   18632 0.00994
 3  2017 M     Liam     18728 0.00954
 4  2017 M     Noah     18326 0.00933
 5  2017 F     Ava      15902 0.00848
 6  2017 F     Isabella 15100 0.00805
 7  2017 F     Sophia   14831 0.00791
 8  2017 M     William  14904 0.00759
 9  2017 M     James    14232 0.00725
10  2017 F     Mia      13437 0.00717
# … with 1,924,655 more rows

Reorder Rows

arrange(data, condition) allows you to order rows by variables:

arrange(babynames, desc(name))

# A tibble: 1,924,665 × 5
    year sex   name          n       prop
   <dbl> <chr> <chr>     <int>      <dbl>
 1  2010 M     Zzyzx         5 0.00000244
 2  2014 M     Zyyon         6 0.00000293
 3  2010 F     Zyyanna       6 0.00000306
 4  2015 M     Zyvon         7 0.00000343
 5  2009 M     Zyvion        5 0.00000236
 6  2016 F     Zyva          8 0.00000415
 7  2017 F     Zyva          9 0.0000048 
 8  2015 M     Zyus          5 0.00000245
 9  2002 M     Zytavious     6 0.0000029 
10  2004 M     Zytavious     6 0.00000284
# … with 1,924,655 more rows
…
Create New Variables

mutate(data, condition) allows you to create new variables (columns)
based on existing columns or not based on your data:

mutate(babynames, decade = year %/% 10 * 10)

# A tibble: 1,924,665 × 6
    year sex   name          n   prop decade
   <dbl> <chr> <chr>     <int>  <dbl>  <dbl>
 1  1880 F     Mary       7065 0.0724   1880
 2  1880 F     Anna       2604 0.0267   1880
 3  1880 F     Emma       2003 0.0205   1880
 4  1880 F     Elizabeth  1939 0.0199   1880
 5  1880 F     Minnie     1746 0.0179   1880
 6  1880 F     Margaret   1578 0.0162   1880
 7  1880 F     Ida        1472 0.0151   1880
 8  1880 F     Alice      1414 0.0145   1880
 9  1880 F     Bertha     1320 0.0135   1880
10  1880 F     Sarah      1288 0.0132   1880
# … with 1,924,655 more rows
…
Create New Variables

mutate(data, condition) allows you to create new variables (columns)
based on existing columns or not based on your data:

mutate(babynames, name = stringr::str_to_lower(name))

# A tibble: 1,924,665 × 5
    year sex   name          n   prop
   <dbl> <chr> <chr>     <int>  <dbl>
 1  1880 F     mary       7065 0.0724
 2  1880 F     anna       2604 0.0267
 3  1880 F     emma       2003 0.0205
 4  1880 F     elizabeth  1939 0.0199
 5  1880 F     minnie     1746 0.0179
 6  1880 F     margaret   1578 0.0162
 7  1880 F     ida        1472 0.0151
 8  1880 F     alice      1414 0.0145
 9  1880 F     bertha     1320 0.0135
10  1880 F     sarah      1288 0.0132
# … with 1,924,655 more rows

Create New Variables

mutate(data, condition) allows you to create new variables (columns)
based on existing columns or not based on your data:

mutate(babynames, note = "Please check!")

# A tibble: 1,924,665 × 6
    year sex   name          n   prop note         
   <dbl> <chr> <chr>     <int>  <dbl> <chr>        
 1  1880 F     Mary       7065 0.0724 Please check!
 2  1880 F     Anna       2604 0.0267 Please check!
 3  1880 F     Emma       2003 0.0205 Please check!
 4  1880 F     Elizabeth  1939 0.0199 Please check!
 5  1880 F     Minnie     1746 0.0179 Please check!
 6  1880 F     Margaret   1578 0.0162 Please check!
 7  1880 F     Ida        1472 0.0151 Please check!
 8  1880 F     Alice      1414 0.0145 Please check!
 9  1880 F     Bertha     1320 0.0135 Please check!
10  1880 F     Sarah      1288 0.0132 Please check!
# … with 1,924,655 more rows

Create New Variables

mutate(data, condition) allows you to create new variables (columns)
based on existing columns or not based on your data:

mutate(babynames, note = if_else(year < 1900, "Please check!", "Ok"))

# A tibble: 1,924,665 × 6
    year sex   name          n   prop note         
   <dbl> <chr> <chr>     <int>  <dbl> <chr>        
 1  1880 F     Mary       7065 0.0724 Please check!
 2  1880 F     Anna       2604 0.0267 Please check!
 3  1880 F     Emma       2003 0.0205 Please check!
 4  1880 F     Elizabeth  1939 0.0199 Please check!
 5  1880 F     Minnie     1746 0.0179 Please check!
 6  1880 F     Margaret   1578 0.0162 Please check!
 7  1880 F     Ida        1472 0.0151 Please check!
 8  1880 F     Alice      1414 0.0145 Please check!
 9  1880 F     Bertha     1320 0.0135 Please check!
10  1880 F     Sarah      1288 0.0132 Please check!
# … with 1,924,655 more rows

Create New Variables

mutate(data, condition) allows you to create new variables (columns)
based on existing columns or not based on your data:

mutate(babynames, id = row_number())

# A tibble: 1,924,665 × 6
    year sex   name          n   prop    id
   <dbl> <chr> <chr>     <int>  <dbl> <int>
 1  1880 F     Mary       7065 0.0724     1
 2  1880 F     Anna       2604 0.0267     2
 3  1880 F     Emma       2003 0.0205     3
 4  1880 F     Elizabeth  1939 0.0199     4
 5  1880 F     Minnie     1746 0.0179     5
 6  1880 F     Margaret   1578 0.0162     6
 7  1880 F     Ida        1472 0.0151     7
 8  1880 F     Alice      1414 0.0145     8
 9  1880 F     Bertha     1320 0.0135     9
10  1880 F     Sarah      1288 0.0132    10
# … with 1,924,655 more rows

Create New Variables

mutate(data, condition) allows you to create new variables (columns)
based on existing and even newly created columns in the same step:

# install.packages("ggplot2")  ## contains the `mpg` data set
mpg <- ggplot2::mpg  ## we need some more numeric columns

mpg

# A tibble: 234 × 11
   manufacturer model      displ  year   cyl trans      drv     cty   hwy fl    class  
   <chr>        <chr>      <dbl> <int> <int> <chr>      <chr> <int> <int> <chr> <chr>  
 1 audi         a4           1.8  1999     4 auto(l5)   f        18    29 p     compact
 2 audi         a4           1.8  1999     4 manual(m5) f        21    29 p     compact
 3 audi         a4           2    2008     4 manual(m6) f        20    31 p     compact
 4 audi         a4           2    2008     4 auto(av)   f        21    30 p     compact
 5 audi         a4           2.8  1999     6 auto(l5)   f        16    26 p     compact
 6 audi         a4           2.8  1999     6 manual(m5) f        18    26 p     compact
 7 audi         a4           3.1  2008     6 auto(av)   f        18    27 p     compact
 8 audi         a4 quattro   1.8  1999     4 manual(m5) 4        18    26 p     compact
 9 audi         a4 quattro   1.8  1999     4 auto(l5)   4        16    25 p     compact
10 audi         a4 quattro   2    2008     4 manual(m6) 4        20    28 p     compact
# … with 224 more rows

Create New Variables

mutate(data, condition) allows you to create new variables (columns)
based on existing and even newly created columns in the same step:

mpg2 <- select(mpg, model, hwy, cty) ## only to fit my slide

mpg2

# A tibble: 234 × 3
   model        hwy   cty
   <chr>      <int> <int>
 1 a4            29    18
 2 a4            29    21
 3 a4            31    20
 4 a4            30    21
 5 a4            26    16
 6 a4            26    18
 7 a4            27    18
 8 a4 quattro    26    18
 9 a4 quattro    25    16
10 a4 quattro    28    20
# … with 224 more rows

Create New Variables

mutate(data, condition) allows you to create new variables (columns)
based on existing and even newly created columns in the same step:

mutate(mpg2, diff = hwy - cty, perc = diff / hwy)

# A tibble: 234 × 5
   model        hwy   cty  diff  perc
   <chr>      <int> <int> <int> <dbl>
 1 a4            29    18    11 0.379
 2 a4            29    21     8 0.276
 3 a4            31    20    11 0.355
 4 a4            30    21     9 0.3  
 5 a4            26    16    10 0.385
 6 a4            26    18     8 0.308
 7 a4            27    18     9 0.333
 8 a4 quattro    26    18     8 0.308
 9 a4 quattro    25    16     9 0.36 
10 a4 quattro    28    20     8 0.286
# … with 224 more rows
…
  model hwy cty diff      perc
1    a4  29  18   11 0.3793103
2    a4  29  21    8 0.2758621
3    a4  31  20   11 0.3548387
4    a4  30  21    9 0.3000000
5    a4  26  16   10 0.3846154
6    a4  26  18    8 0.3076923

Create New Variables

mutate() in combination with across() allows you to transform all columns in one step:

mutate(mpg2, across(everything(), as.double))

# A tibble: 234 × 3
   model   hwy   cty
   <dbl> <dbl> <dbl>
 1    NA    29    18
 2    NA    29    21
 3    NA    31    20
 4    NA    30    21
 5    NA    26    16
 6    NA    26    18
 7    NA    27    18
 8    NA    26    18
 9    NA    25    16
10    NA    28    20
# … with 224 more rows

Create New Variables

mutate() in combination with across() and where() allows you to conditionally create new columns in one step:

mutate(mpg2, across(where(is.numeric), as.double))

# A tibble: 234 × 3
   model        hwy   cty
   <chr>      <dbl> <dbl>
 1 a4            29    18
 2 a4            29    21
 3 a4            31    20
 4 a4            30    21
 5 a4            26    16
 6 a4            26    18
 7 a4            27    18
 8 a4 quattro    26    18
 9 a4 quattro    25    16
10 a4 quattro    28    20
# … with 224 more rows

Create New Variables

mutate() in combination with across() and where() allows you to conditionally create new columns in one step:

mutate(mpg2, across(where(is.numeric), list(avg = mean, log_2 = log2)))

# A tibble: 234 × 7
   model        hwy   cty hwy_avg hwy_log_2 cty_avg cty_log_2
   <chr>      <int> <int>   <dbl>     <dbl>   <dbl>     <dbl>
 1 a4            29    18    23.4      4.86    16.9      4.17
 2 a4            29    21    23.4      4.86    16.9      4.39
 3 a4            31    20    23.4      4.95    16.9      4.32
 4 a4            30    21    23.4      4.91    16.9      4.39
 5 a4            26    16    23.4      4.70    16.9      4   
 6 a4            26    18    23.4      4.70    16.9      4.17
 7 a4            27    18    23.4      4.75    16.9      4.17
 8 a4 quattro    26    18    23.4      4.70    16.9      4.17
 9 a4 quattro    25    16    23.4      4.64    16.9      4   
10 a4 quattro    28    20    23.4      4.81    16.9      4.32
# … with 224 more rows
…
group_by()

— Create Subsets —

Create Subsets

group_by(data, condition) allows you to break down your data into specified groups based on variables:

group_by(babynames, sex)

# A tibble: 1,924,665 × 5
# Groups:   sex [2]
    year sex   name          n   prop
   <dbl> <chr> <chr>     <int>  <dbl>
 1  1880 F     Mary       7065 0.0724
 2  1880 F     Anna       2604 0.0267
 3  1880 F     Emma       2003 0.0205
 4  1880 F     Elizabeth  1939 0.0199
 5  1880 F     Minnie     1746 0.0179
 6  1880 F     Margaret   1578 0.0162
 7  1880 F     Ida        1472 0.0151
 8  1880 F     Alice      1414 0.0145
 9  1880 F     Bertha     1320 0.0135
10  1880 F     Sarah      1288 0.0132
# … with 1,924,655 more rows

Create Subsets

group_by(data, condition) allows you to break down your data into specified groups based on variables:

group_by(babynames, sex, year)

# A tibble: 1,924,665 × 5
# Groups:   sex, year [276]
    year sex   name          n   prop
   <dbl> <chr> <chr>     <int>  <dbl>
 1  1880 F     Mary       7065 0.0724
 2  1880 F     Anna       2604 0.0267
 3  1880 F     Emma       2003 0.0205
 4  1880 F     Elizabeth  1939 0.0199
 5  1880 F     Minnie     1746 0.0179
 6  1880 F     Margaret   1578 0.0162
 7  1880 F     Ida        1472 0.0151
 8  1880 F     Alice      1414 0.0145
 9  1880 F     Bertha     1320 0.0135
10  1880 F     Sarah      1288 0.0132
# … with 1,924,655 more rows

Remove Subsets

… and ungroup() lets you remove any subsets:

grouped <- group_by(babynames, sex, year)
ungroup(grouped)

# A tibble: 1,924,665 × 5
    year sex   name          n   prop
   <dbl> <chr> <chr>     <int>  <dbl>
 1  1880 F     Mary       7065 0.0724
 2  1880 F     Anna       2604 0.0267
 3  1880 F     Emma       2003 0.0205
 4  1880 F     Elizabeth  1939 0.0199
 5  1880 F     Minnie     1746 0.0179
 6  1880 F     Margaret   1578 0.0162
 7  1880 F     Ida        1472 0.0151
 8  1880 F     Alice      1414 0.0145
 9  1880 F     Bertha     1320 0.0135
10  1880 F     Sarah      1288 0.0132
# … with 1,924,655 more rows
…
