Reproducible Data Analysis with R
…
bikes_adj <-
  readr::read_csv(
    "./data/london-bikes-custom.csv",
    col_types = "Dcfffilllddddc"
  ) %>%
  mutate(
    season = factor(season, levels = c("spring", "summer", "autumn", "winter")),
    day_night = stringr::str_to_title(day_night),
    is_workday = factor(is_workday, level = c(TRUE, FALSE),
                        labels = c("Workday", "Weekend or Holiday"))
  )

bikes_adj

# A tibble: 1,454 × 14
   date       day_night year  month season count is_wo…¹ is_we…² is_ho…³  temp temp_…⁴ humid…⁵ wind_…⁶ weath…⁷
   <date>     <chr>     <fct> <fct> <fct>  <int> <fct>   <lgl>   <lgl>   <dbl>   <dbl>   <dbl>   <dbl> <chr>  
 1 2015-01-04 Day       2015  1     winter  6830 Weeken… TRUE    FALSE    2.17   -0.75    95.2   10.4  broken…
 2 2015-01-04 Night     2015  1     winter  2404 Weeken… TRUE    FALSE    2.79    2.04    93.4    4.58 clear  
 3 2015-01-05 Day       2015  1     winter 14763 Workday FALSE   FALSE    8.96    7.71    81.1    8.67 broken…
 4 2015-01-05 Night     2015  1     winter  5609 Workday FALSE   FALSE    7.12    5.71    79.5    9.04 cloudy 
 5 2015-01-06 Day       2015  1     winter 14501 Workday FALSE   FALSE    9       6.46    80.2   19.2  broken…
 6 2015-01-06 Night     2015  1     winter  6112 Workday FALSE   FALSE    6.71    4.21    77.6   12.8  clear  
 7 2015-01-07 Day       2015  1     winter 16358 Workday FALSE   FALSE    8.17    5.08    75.2   21.2  scatte…
 8 2015-01-07 Night     2015  1     winter  4706 Workday FALSE   FALSE    6.68    3.86    81.3   18.1  clear  
 9 2015-01-08 Day       2015  1     winter  9971 Workday FALSE   FALSE    9.46    7.12    79.4   18.8  scatte…
10 2015-01-08 Night     2015  1     winter  5630 Workday FALSE   FALSE   10.0     8.46    79.2   22.2  clear  
# … with 1,444 more rows, and abbreviated variable names ¹​is_workday, ²​is_weekend, ³​is_holiday, ⁴​temp_feel,
#   ⁵​humidity, ⁶​wind_speed, ⁷​weather_type
…
