Reproducible Data Analysis with R
…
a yes/no classification if the species is considered aquatic or not

the average and maximum abundance observed at the site

the average body mass in grams

provided as educational resource by the Quebec Centre for Biodiversity Science

Our Example Data 🦉🕊️🦅

birds <- readr::read_csv("./data/birds.csv")

birds

# A tibble: 54 × 7
   family             max_abund avg_abund   mass diet        passerine aquatic
   <chr>                  <dbl>     <dbl>  <dbl> <chr>           <dbl>   <dbl>
 1 Hawks&Eagles&Kites      2.99     0.674  716.  Vertebrate          0       0
 2 Long-tailed tits       37.8      4.04     5.3 Insect              1       0
 3 Larks                 241.      23.1     35.8 PlantInsect         1       0
 4 Kingfishers             4.4      0.595  119.  Vertebrate          0       0
 5 Auks& Puffins           4.53     2.96   315.  InsectVert          0       1
 6 Ducks& Geese           23.7      2.74  1144.  PlantInsect         0       1
 7 Anhingas               24.6      1.84  1250   Vertebrate          0       1
 8 Swifts                 44.0      3.95    27.4 Insect              0       0
 9 Limpkins                1.6      0.567 1100   Insect              0       1
10 Herons& Egrets         46.5      2.97   462.  Vertebrate          0       1
# … with 44 more rows

Our Example Data 🦉🕊️🦅

birds <- readr::read_csv("./data/birds.csv")

library(dplyr)
birds <- mutate(birds, across(c("family", "diet", "passerine", "aquatic"), factor))

birds

# A tibble: 54 × 7
   family             max_abund avg_abund   mass diet        passerine aquatic
   <fct>                  <dbl>     <dbl>  <dbl> <fct>       <fct>     <fct>  
 1 Hawks&Eagles&Kites      2.99     0.674  716.  Vertebrate  0         0      
 2 Long-tailed tits       37.8      4.04     5.3 Insect      1         0      
 3 Larks                 241.      23.1     35.8 PlantInsect 1         0      
 4 Kingfishers             4.4      0.595  119.  Vertebrate  0         0      
 5 Auks& Puffins           4.53     2.96   315.  InsectVert  0         1      
 6 Ducks& Geese           23.7      2.74  1144.  PlantInsect 0         1      
 7 Anhingas               24.6      1.84  1250   Vertebrate  0         1      
 8 Swifts                 44.0      3.95    27.4 Insect      0         0      
 9 Limpkins                1.6      0.567 1100   Insect      0         1      
10 Herons& Egrets         46.5      2.97   462.  Vertebrate  0         1      
# … with 44 more rows

Our Example Data 🦉🕊️🦅

birds <- readr::read_csv("./data/birds.csv", col_types = "fdddfff")

birds

# A tibble: 54 × 7
   family             max_abund avg_abund   mass diet        passerine aquatic
   <fct>                  <dbl>     <dbl>  <dbl> <fct>       <fct>     <fct>  
 1 Hawks&Eagles&Kites      2.99     0.674  716.  Vertebrate  0         0      
 2 Long-tailed tits       37.8      4.04     5.3 Insect      1         0      
 3 Larks                 241.      23.1     35.8 PlantInsect 1         0      
 4 Kingfishers             4.4      0.595  119.  Vertebrate  0         0      
 5 Auks& Puffins           4.53     2.96   315.  InsectVert  0         1      
 6 Ducks& Geese           23.7      2.74  1144.  PlantInsect 0         1      
 7 Anhingas               24.6      1.84  1250   Vertebrate  0         1      
 8 Swifts                 44.0      3.95    27.4 Insect      0         0      
 9 Limpkins                1.6      0.567 1100   Insect      0         1      
10 Herons& Egrets         46.5      2.97   462.  Vertebrate  0         1      
# … with 44 more rows
…
Interpret the model outcomes.

Visualize the model trend and the distribution of residuals.

Bonus: Fit and explore a model for terrestrial birds only.

Transform the Variables

birds <- birds %>% 
  mutate(across(c(max_abund, mass), log10, .names = "{col}_log"))

birds

# A tibble: 54 × 9
   family             max_abund avg_abund   mass diet        passerine aquatic max_abund_log mass_log
   <fct>                  <dbl>     <dbl>  <dbl> <fct>       <fct>     <fct>           <dbl>    <dbl>
 1 Hawks&Eagles&Kites      2.99     0.674  716.  Vertebrate  0         0               0.475    2.85 
 2 Long-tailed tits       37.8      4.04     5.3 Insect      1         0               1.58     0.724
 3 Larks                 241.      23.1     35.8 PlantInsect 1         0               2.38     1.55 
 4 Kingfishers             4.4      0.595  119.  Vertebrate  0         0               0.643    2.08 
 5 Auks& Puffins           4.53     2.96   315.  InsectVert  0         1               0.656    2.50 
 6 Ducks& Geese           23.7      2.74  1144.  PlantInsect 0         1               1.37     3.06 
 7 Anhingas               24.6      1.84  1250   Vertebrate  0         1               1.39     3.10 
 8 Swifts                 44.0      3.95    27.4 Insect      0         0               1.64     1.44 
 9 Limpkins                1.6      0.567 1100   Insect      0         1               0.204    3.04 
10 Herons& Egrets         46.5      2.97   462.  Vertebrate  0         1               1.67     2.66 
# … with 44 more rows

Alternatively:

birds <- birds %>% 
  mutate(log_max_abund = log10(max_abund), log_mass = log10(mass))

Transform the Variables

birds <- birds %>% 
  mutate(across(c(max_abund, mass), log10, .names = "{col}_log"))

birds

# A tibble: 54 × 9
   family             max_abund avg_abund   mass diet        passerine aquatic max_abund_log mass_log
   <fct>                  <dbl>     <dbl>  <dbl> <fct>       <fct>     <fct>           <dbl>    <dbl>
 1 Hawks&Eagles&Kites      2.99     0.674  716.  Vertebrate  0         0               0.475    2.85 
 2 Long-tailed tits       37.8      4.04     5.3 Insect      1         0               1.58     0.724
 3 Larks                 241.      23.1     35.8 PlantInsect 1         0               2.38     1.55 
 4 Kingfishers             4.4      0.595  119.  Vertebrate  0         0               0.643    2.08 
 5 Auks& Puffins           4.53     2.96   315.  InsectVert  0         1               0.656    2.50 
 6 Ducks& Geese           23.7      2.74  1144.  PlantInsect 0         1               1.37     3.06 
 7 Anhingas               24.6      1.84  1250   Vertebrate  0         1               1.39     3.10 
 8 Swifts                 44.0      3.95    27.4 Insect      0         0               1.64     1.44 
 9 Limpkins                1.6      0.567 1100   Insect      0         1               0.204    3.04 
10 Herons& Egrets         46.5      2.97   462.  Vertebrate  0         1               1.67     2.66 
# … with 44 more rows
…
summary(lm_log)$adj.r.squared

[1] 0.05483696

The model using transformed response and predictor variables has 
 very little evidence to support the hypothesis.

Create a Subset

birds_terrestrial <- filter(birds, aquatic == "0")

birds_terrestrial

# A tibble: 39 × 9
   family                          max_abund avg_abund  mass diet        passerine aquatic max_abund…¹ mass_…²
   <fct>                               <dbl>     <dbl> <dbl> <fct>       <fct>     <fct>         <dbl>   <dbl>
 1 Hawks&Eagles&Kites                   2.99     0.674 716.  Vertebrate  0         0             0.475   2.85 
 2 Long-tailed tits                    37.8      4.04    5.3 Insect      1         0             1.58    0.724
 3 Larks                              241.      23.1    35.8 PlantInsect 1         0             2.38    1.55 
 4 Kingfishers                          4.4      0.595 119.  Vertebrate  0         0             0.643   2.08 
 5 Swifts                              44.0      3.95   27.4 Insect      0         0             1.64    1.44 
 6 Waxwings                            11.7      2.80   42.3 PlantInsect 1         0             1.07    1.63 
 7 Nightjars                            9.10     1.57   57.8 Insect      0         0             0.959   1.76 
 8 Cardinals& Buntings& Grosbreaks     49.8      6.62   24.0 PlantInsect 1         0             1.70    1.38 
 9 Creepers                             9.6      1.03    8.4 Insect      1         0             0.982   0.924
10 Pigeons & Doves                     14.9      3.04  141.  Plant       0         0             1.17    2.15 
# … with 29 more rows, and abbreviated variable names ¹​max_abund_log, ²​mass_log
…
